<?xml version="1.0" standalone="no"?>
<!DOCTYPE svg PUBLIC "-//W3C//DTD SVG 20010904//EN"
 "http://www.w3.org/TR/2001/REC-SVG-20010904/DTD/svg10.dtd">
<svg version="1.0" xmlns="http://www.w3.org/2000/svg"
 width="512.000000pt" height="512.000000pt" viewBox="0 0 512.000000 512.000000"
 preserveAspectRatio="xMidYMid meet">
<metadata>
Created by potrace 1.14, written by Peter Selinger 2001-2017
</metadata>
<g transform="translate(0.000000,512.000000) scale(0.100000,-0.100000)"
fill="#000000" stroke="none">
<path d="M371 5104 c-160 -43 -301 -181 -351 -342 -20 -63 -20 -97 -20 -2196
0 -1426 4 -2146 11 -2176 40 -176 203 -339 379 -379 30 -7 740 -11 2170 -11
1739 0 2134 3 2175 14 180 47 323 190 370 367 13 46 15 370 15 2182 l0 2128
-25 76 c-32 93 -81 169 -149 229 -56 50 -147 97 -216 113 -30 7 -747 10 -2175
10 -1829 0 -2138 -2 -2184 -15z m3219 -2544 l0 -80 -1025 0 -1025 0 0 80 0 80
1025 0 1025 0 0 -80z"/>
</g>
</svg>
